{
  "data": {
    "filters": {
      "ageRange": null,
      "holdType": null,
      "package": null,
      "reason": null,
      "treemapReason": null,
      "workcenter": null
    },
    "lots": [
      {
        "age": 100.0,
        "dept": "封裝品質管制課",
        "futureHoldComment": null,
        "holdBy": "詹慈嬿",
        "holdComment": "留料10pcs給IPQC慈嬿",
        "holdReason": "工程驗證(PE)",
        "lotId": "GA26021978-A00-001",
        "package": "TO-277C",
        "product": "SBT20100UPC_R2_00701",
        "qty": 1136,
        "spec": "3M",
        "workcenter": "TMTT",
        "workorder": "GA26021978"
      },
      {
        "age": 91.8,
        "dept": "封裝品質管制課",
        "futureHoldComment": ";RD料號工程驗證",
        "holdBy": "宋品萱",
        "holdComment": null,
        "holdReason": "工程驗證(RD)",
        "lotId": "GA26021999-A00-002",
        "package": "DO-218AB",
        "product": "RD-SM6S22A-AU_R2_007A1",
        "qty": 358,
        "spec": "PRE TMTT",
        "workcenter": "TMTT",
        "workorder": "GA26021999"
      },
      {
        "age": 45.4,
        "dept": "供應商管理課",
        "futureHoldComment": null,
        "holdBy": "李育全",
        "holdComment": "[失效模式]：[LY26050004]，[不良率]：[??]，[發現時機]：[??]，[現況確認]：[待QC與其他風險批一同處置]",
        "holdReason": "工程驗證(PE)",
        "lotId": "GA26041709-A00-006",
        "package": "SOD-323HE",
        "product": "SS1040HEWS-AU_R1_000A1",
        "qty": 69556,
        "spec": "PRE 電鍍",
        "workcenter": "電鍍",
        "workorder": "GA26041709"
      },
      {
        "age": 44.8,
        "dept": "供應商管理課",
        "futureHoldComment": "[失效模式]：[鍍銀層偏位]，[不良率]：[??]，[發現時機]：[??]，[現況確認]：[待與其他風險批一同處置]",
        "holdBy": "李育全",
        "holdComment": "[失效模式]：[LY26050004]，[不良率]：[??]，[發現時機]：[??]，[現況確認]：[待QC與其他風險批一同處置]",
        "holdReason": "工程驗證(PE)",
        "lotId": "GA26041570-A00-021",
        "package": "SOD-323HE",
        "product": "PZS5224BCH_R1_00001",
        "qty": 142311,
        "spec": "吹砂-START",
        "workcenter": "水吹砂",
        "workorder": "GA26041570"
      },
      {
        "age": 44.4,
        "dept": "供應商管理課",
        "futureHoldComment": "[失效模式]：[鍍銀層偏移]，[不良率]：[??]，[發現時機]：[IPQC首件檢查]，[現況確認]：[風險批]",
        "holdBy": "李育全",
        "holdComment": "[失效模式]：[LY26050004]，[不良率]：[??]，[發現時機]：[??]，[現況確認]：[待MRB決議]",
        "holdReason": "工程驗證(PE)",
        "lotId": "GA26041719-A00-003",
        "package": "SOD-323HE",
        "product": "SS1030HEWS_R1_00001",
        "qty": 69556,
        "spec": "雷射切割",
        "workcenter": "去膠",
        "workorder": "GA26041719"
      },
      {
        "age": 44.4,
        "dept": "供應商管理課",
        "futureHoldComment": null,
        "holdBy": "李育全",
        "holdComment": "[失效模式]：[LY26050004]，[不良率]：[??]，[發現時機]：[??]，[現況確認]：[待QC與其他風險批一同處置]",
        "holdReason": "工程驗證(PE)",
        "lotId": "GA26041709-A00-003",
        "package": "SOD-323HE",
        "product": "SS1040HEWS-AU_R1_000A1",
        "qty": 68753,
        "spec": "PRE TMTT",
        "workcenter": "TMTT",
        "workorder": "GA26041709"
      },
      {
        "age": 44.0,
        "dept": "供應商管理課",
        "futureHoldComment": null,
        "holdBy": "李育全",
        "holdComment": "[失效模式]：[LY26050004]，[不良率]：[??]，[發現時機]：[??]，[現況確認]：[待QC與其他風險批一同處置]",
        "holdReason": "工程驗證(PE)",
        "lotId": "GA26041708-A00-007",
        "package": "SOD-323HE",
        "product": "SS1040HEWS-AU_R1_000A1",
        "qty": 35176,
        "spec": "PRE TMTT",
        "workcenter": "TMTT",
        "workorder": "GA26041708"
      },
      {
        "age": 44.0,
        "dept": "供應商管理課",
        "futureHoldComment": null,
        "holdBy": "李育全",
        "holdComment": "[失效模式]：[LY26050004]，[不良率]：[??]，[發現時機]：[??]，[現況確認]：[待MRB決議]",
        "holdReason": "工程驗證(PE)",
        "lotId": "GA26041706-A00-011",
        "package": "SOD-323HE",
        "product": "SS1040HEWS-AU_R1_000A1",
        "qty": 33579,
        "spec": "自動De-gate",
        "workcenter": "去膠",
        "workorder": "GA26041706"
      },
      {
        "age": 43.9,
        "dept": "供應商管理課",
        "futureHoldComment": null,
        "holdBy": "李育全",
        "holdComment": "[失效模式]：[LY26050004]，[不良率]：[??]，[發現時機]：[??]，[現況確認]：[待MRB決議]",
        "holdReason": "工程驗證(PE)",
        "lotId": "GA26041709-A00-005",
        "package": "SOD-323HE",
        "product": "SS1040HEWS-AU_R1_000A1",
        "qty": 33578,
        "spec": "自動De-gate",
        "workcenter": "去膠",
        "workorder": "GA26041709"
      },
      {
        "age": 43.8,
        "dept": "供應商管理課",
        "futureHoldComment": null,
        "holdBy": "李育全",
        "holdComment": "[失效模式]：[LY26050004]，[不良率]：[??]，[發現時機]：[??]，[現況確認]：[待MRB決議]",
        "holdReason": "工程驗證(PE)",
        "lotId": "GA26041715-A00-006",
        "package": "SOD-323HE",
        "product": "SS1030HEWS_R1_00001",
        "qty": 35178,
        "spec": "自動De-gate",
        "workcenter": "去膠",
        "workorder": "GA26041715"
      },
      {
        "age": 43.8,
        "dept": "供應商管理課",
        "futureHoldComment": null,
        "holdBy": "李育全",
        "holdComment": "[失效模式]：[LY26050004]，[不良率]：[??]，[發現時機]：[??]，[現況確認]：[待MRB決議]",
        "holdReason": "工程驗證(PE)",
        "lotId": "GA26041719-A00-002",
        "package": "SOD-323HE",
        "product": "SS1030HEWS_R1_00001",
        "qty": 35178,
        "spec": "自動De-gate",
        "workcenter": "去膠",
        "workorder": "GA26041719"
      },
      {
        "age": 43.7,
        "dept": "供應商管理課",
        "futureHoldComment": null,
        "holdBy": "李育全",
        "holdComment": "[失效模式]：[LY26050004]，[不良率]：[??]，[發現時機]：[??]，[現況確認]：[待MRB決議]",
        "holdReason": "工程驗證(PE)",
        "lotId": "GA26041715-A00-003",
        "package": "SOD-323HE",
        "product": "SS1030HEWS_R1_00001",
        "qty": 35178,
        "spec": "自動De-gate",
        "workcenter": "去膠",
        "workorder": "GA26041715"
      },
      {
        "age": 43.7,
        "dept": "供應商管理課",
        "futureHoldComment": null,
        "holdBy": "李育全",
        "holdComment": "[失效模式]：[LY26050004]，[不良率]：[??]，[發現時機]：[??]，[現況確認]：[待MRB決議]",
        "holdReason": "工程驗證(PE)",
        "lotId": "GA26041715-A00-002",
        "package": "SOD-323HE",
        "product": "SS1030HEWS_R1_00001",
        "qty": 35178,
        "spec": "自動De-gate",
        "workcenter": "去膠",
        "workorder": "GA26041715"
      },
      {
        "age": 43.6,
        "dept": "供應商管理課",
        "futureHoldComment": null,
        "holdBy": "李育全",
        "holdComment": "[失效模式]：[LY26050004]，[不良率]：[??]，[發現時機]：[??]，[現況確認]：[待MRB決議]",
        "holdReason": "工程驗證(PE)",
        "lotId": "GA26041570-A00-018",
        "package": "SOD-323HE",
        "product": "PZS5224BCH_R1_00001",
        "qty": 95140,
        "spec": "自動De-gate",
        "workcenter": "去膠",
        "workorder": "GA26041570"
      },
      {
        "age": 43.5,
        "dept": "供應商管理課",
        "futureHoldComment": null,
        "holdBy": "李育全",
        "holdComment": "[失效模式]：[LY26050004]，[不良率]：[??]，[發現時機]：[??]，[現況確認]：[待MRB決議]",
        "holdReason": "工程驗證(PE)",
        "lotId": "GA26041570-A00-019",
        "package": "SOD-323HE",
        "product": "PZS5224BCH_R1_00001",
        "qty": 95934,
        "spec": "自動De-gate",
        "workcenter": "去膠",
        "workorder": "GA26041570"
      },
      {
        "age": 43.5,
        "dept": "供應商管理課",
        "futureHoldComment": null,
        "holdBy": "李育全",
        "holdComment": "[失效模式]：[LY26050004]，[不良率]：[??]，[發現時機]：[??]，[現況確認]：[待MRB決議]",
        "holdReason": "工程驗證(PE)",
        "lotId": "GA26041715-A00-001",
        "package": "SOD-323HE",
        "product": "SS1030HEWS_R1_00001",
        "qty": 68755,
        "spec": "自動De-gate",
        "workcenter": "去膠",
        "workorder": "GA26041715"
      },
      {
        "age": 43.4,
        "dept": "供應商管理課",
        "futureHoldComment": null,
        "holdBy": "李育全",
        "holdComment": "[失效模式]：[LY26050004]，[不良率]：[??]，[發現時機]：[??]，[現況確認]：[待MRB決議]",
        "holdReason": "工程驗證(PE)",
        "lotId": "GA26041574-A00-001",
        "package": "SOD-323HE",
        "product": "PZS525V1BCH_R1_00001",
        "qty": 94342,
        "spec": "自動De-gate",
        "workcenter": "去膠",
        "workorder": "GA26041574"
      },
      {
        "age": 43.3,
        "dept": "供應商管理課",
        "futureHoldComment": null,
        "holdBy": "李育全",
        "holdComment": "[失效模式]：[LY26050004]，[不良率]：[??]，[發現時機]：[??]，[現況確認]：[待MRB決議]",
        "holdReason": "工程驗證(PE)",
        "lotId": "GA26041574-A00-003",
        "package": "SOD-323HE",
        "product": "PZS525V1BCH_R1_00001",
        "qty": 93541,
        "spec": "自動De-gate",
        "workcenter": "去膠",
        "workorder": "GA26041574"
      },
      {
        "age": 43.3,
        "dept": "供應商管理課",
        "futureHoldComment": null,
        "holdBy": "李育全",
        "holdComment": "[失效模式]：[LY26050004]，[不良率]：[??]，[發現時機]：[??]，[現況確認]：[待MRB決議]",
        "holdReason": "工程驗證(PE)",
        "lotId": "GA26041715-A00-009",
        "package": "SOD-323HE",
        "product": "SS1030HEWS_R1_00001",
        "qty": 35178,
        "spec": "自動De-gate",
        "workcenter": "去膠",
        "workorder": "GA26041715"
      },
      {
        "age": 43.2,
        "dept": "供應商管理課",
        "futureHoldComment": null,
        "holdBy": "李育全",
        "holdComment": "[失效模式]：[LY26050004]，[不良率]：[??]，[發現時機]：[??]，[現況確認]：[待MRB決議]",
        "holdReason": "工程驗證(PE)",
        "lotId": "GA26041719-A00-004",
        "package": "SOD-323HE",
        "product": "SS1030HEWS_R1_00001",
        "qty": 35178,
        "spec": "自動De-gate",
        "workcenter": "去膠",
        "workorder": "GA26041719"
      },
      {
        "age": 43.2,
        "dept": "供應商管理課",
        "futureHoldComment": null,
        "holdBy": "李育全",
        "holdComment": "[失效模式]：[LY26050004]，[不良率]：[??]，[發現時機]：[??]，[現況確認]：[待MRB決議]",
        "holdReason": "工程驗證(PE)",
        "lotId": "GA26041715-A00-005",
        "package": "SOD-323HE",
        "product": "SS1030HEWS_R1_00001",
        "qty": 35178,
        "spec": "自動De-gate",
        "workcenter": "去膠",
        "workorder": "GA26041715"
      },
      {
        "age": 43.2,
        "dept": "供應商管理課",
        "futureHoldComment": null,
        "holdBy": "李育全",
        "holdComment": "[失效模式]：[LY26050004]，[不良率]：[??]，[發現時機]：[??]，[現況確認]：[待MRB決議]",
        "holdReason": "工程驗證(PE)",
        "lotId": "GA26041719-A00-008",
        "package": "SOD-323HE",
        "product": "SS1030HEWS_R1_00001",
        "qty": 35178,
        "spec": "自動De-gate",
        "workcenter": "去膠",
        "workorder": "GA26041719"
      },
      {
        "age": 43.2,
        "dept": "供應商管理課",
        "futureHoldComment": null,
        "holdBy": "李育全",
        "holdComment": "[失效模式]：[LY26050004]，[不良率]：[??]，[發現時機]：[??]，[現況確認]：[待QC與其他風險批一同處置]",
        "holdReason": "工程驗證(PE)",
        "lotId": "GA26041570-A00-015",
        "package": "SOD-323HE",
        "product": "PZS5224BCH_R1_00001",
        "qty": 95936,
        "spec": "LT",
        "workcenter": "TMTT",
        "workorder": "GA26041570"
      },
      {
        "age": 43.2,
        "dept": "供應商管理課",
        "futureHoldComment": null,
        "holdBy": "李育全",
        "holdComment": "[失效模式]：[LY26050004]，[不良率]：[??]，[發現時機]：[??]，[現況確認]：[待MRB決議]",
        "holdReason": "工程驗證(PE)",
        "lotId": "GA26041719-A00-005",
        "package": "SOD-323HE",
        "product": "SS1030HEWS_R1_00001",
        "qty": 35178,
        "spec": "自動De-gate",
        "workcenter": "去膠",
        "workorder": "GA26041719"
      },
      {
        "age": 43.0,
        "dept": "供應商管理課",
        "futureHoldComment": null,
        "holdBy": "李育全",
        "holdComment": "[失效模式]：[LY26050004]，[不良率]：[??]，[發現時機]：[??]，[現況確認]：[待MRB決議]",
        "holdReason": "工程驗證(PE)",
        "lotId": "GA26041570-A00-020",
        "package": "SOD-323HE",
        "product": "PZS5224BCH_R1_00001",
        "qty": 95940,
        "spec": "自動De-gate",
        "workcenter": "去膠",
        "workorder": "GA26041570"
      },
      {
        "age": 42.9,
        "dept": "供應商管理課",
        "futureHoldComment": null,
        "holdBy": "李育全",
        "holdComment": "[失效模式]：[??]，[不良率]：[??]，[發現時機]：[??]，[現況確認]：[待MRB會議，目前材料在IQC HOLD料]",
        "holdReason": "工程驗證(PE)",
        "lotId": "6503C72P7",
        "package": "SOD-323HE",
        "product": "PZS5224BCH_R1_00001",
        "qty": 170000,
        "spec": "成品包裝",
        "workcenter": "品檢",
        "workorder": "GA26041570"
      },
      {
        "age": 42.9,
        "dept": "供應商管理課",
        "futureHoldComment": null,
        "holdBy": "李育全",
        "holdComment": "[失效模式]：[??]，[不良率]：[??]，[發現時機]：[??]，[現況確認]：[待MRB會議，目前材料在IQC HOLD料]",
        "holdReason": "工程驗證(PE)",
        "lotId": "6504C71B7",
        "package": "SOD-323HE",
        "product": "SS1040HEWS-AU_R1_000A1",
        "qty": 70000,
        "spec": "成品包裝",
        "workcenter": "品檢",
        "workorder": "GA26041708"
      },
      {
        "age": 42.4,
        "dept": "供應商管理課",
        "futureHoldComment": null,
        "holdBy": "李育全",
        "holdComment": "[失效模式]：[LY26050004]，[不良率]：[??]，[發現時機]：[??]，[現況確認]：[待MRB決議]",
        "holdReason": "工程驗證(PE)",
        "lotId": "GA26041719-A00-001",
        "package": "SOD-323HE",
        "product": "SS1030HEWS_R1_00001",
        "qty": 35178,
        "spec": "自動De-gate",
        "workcenter": "去膠",
        "workorder": "GA26041719"
      },
      {
        "age": 42.4,
        "dept": "供應商管理課",
        "futureHoldComment": null,
        "holdBy": "李育全",
        "holdComment": "[失效模式]：[LY26050004]，[不良率]：[??]，[發現時機]：[??]，[現況確認]：[待QC與其他風險批一同處置]",
        "holdReason": "工程驗證(PE)",
        "lotId": "GA26041719-A00-007",
        "package": "SOD-323HE",
        "product": "SS1030HEWS_R1_00001",
        "qty": 34378,
        "spec": "自動De-gate",
        "workcenter": "去膠",
        "workorder": "GA26041719"
      },
      {
        "age": 42.3,
        "dept": "供應商管理課",
        "futureHoldComment": null,
        "holdBy": "李育全",
        "holdComment": "[失效模式]：[LY26050004]，[不良率]：[??]，[發現時機]：[??]，[現況確認]：[待QC與其他風險批一同處置]",
        "holdReason": "工程驗證(PE)",
        "lotId": "GA26041719-A00-009",
        "package": "SOD-323HE",
        "product": "SS1030HEWS_R1_00001",
        "qty": 35178,
        "spec": "自動De-gate",
        "workcenter": "去膠",
        "workorder": "GA26041719"
      },
      {
        "age": 42.3,
        "dept": "供應商管理課",
        "futureHoldComment": null,
        "holdBy": "李育全",
        "holdComment": "[失效模式]：[LY26050004]，[不良率]：[??]，[發現時機]：[??]，[現況確認]：[待QC與其他風險批一同處置]",
        "holdReason": "工程驗證(PE)",
        "lotId": "GA26041715-A00-004",
        "package": "SOD-323HE",
        "product": "SS1030HEWS_R1_00001",
        "qty": 35156,
        "spec": "自動De-gate",
        "workcenter": "去膠",
        "workorder": "GA26041715"
      },
      {
        "age": 42.2,
        "dept": "供應商管理課",
        "futureHoldComment": null,
        "holdBy": "李育全",
        "holdComment": "[失效模式]：[LY26050004鍍曾偏位]，[不良率]：[??]，[發現時機]：[??]，[現況確認]：[待IQC與其他風險批一同處置]",
        "holdReason": "工程驗證(PE)",
        "lotId": "GA26041570-A00-017",
        "package": "SOD-323HE",
        "product": "PZS5224BCH_R1_00001",
        "qty": 95140,
        "spec": "PRE 電鍍",
        "workcenter": "電鍍",
        "workorder": "GA26041570"
      },
      {
        "age": 42.0,
        "dept": "供應商管理課",
        "futureHoldComment": "[失效模式]：[鍍銀層偏位]，[不良率]：[??]，[發現時機]：[??]，[現況確認]：[待QC與其他風險批一同處置]",
        "holdBy": "李育全",
        "holdComment": "[失效模式]：[??]，[不良率]：[??]，[發現時機]：[??]，[現況確認]：[待MRB會議，目前材料IQCHOLD住]",
        "holdReason": "工程驗證(PE)",
        "lotId": "GA26041709-A00-004",
        "package": "SOD-323HE",
        "product": "SS1040HEWS-AU_R1_000A1",
        "qty": 34377,
        "spec": "PRE TMTT",
        "workcenter": "TMTT",
        "workorder": "GA26041709"
      },
      {
        "age": 23.7,
        "dept": null,
        "futureHoldComment": null,
        "holdBy": "Camstar Administrator",
        "holdComment": "Low Yield '94.242714%' Hold by PAC",
        "holdReason": "YieldLimit",
        "lotId": "GA26043097-A00-004",
        "package": "SOT-23 CU",
        "product": "PJA3413-AU_R1_007A3",
        "qty": 48846,
        "spec": "鈦昇",
        "workcenter": "TMTT",
        "workorder": "GA26043097"
      },
      {
        "age": 23.7,
        "dept": null,
        "futureHoldComment": null,
        "holdBy": "Camstar Administrator",
        "holdComment": "Low Yield '95.45875%' Hold by PAC",
        "holdReason": "YieldLimit",
        "lotId": "GA26043097-A00-001-01C",
        "package": "SOT-23 CU",
        "product": "PJA3413-AU_R1_007A3",
        "qty": 96000,
        "spec": "鈦昇",
        "workcenter": "TMTT",
        "workorder": "GA26043097"
      },
      {
        "age": 23.3,
        "dept": null,
        "futureHoldComment": null,
        "holdBy": "Camstar Administrator",
        "holdComment": "Low Yield '90.35446%' Hold by PAC",
        "holdReason": "YieldLimit",
        "lotId": "GA26043097-A00-007",
        "package": "SOT-23 CU",
        "product": "PJA3413-AU_R1_007A3",
        "qty": 46444,
        "spec": "鈦昇",
        "workcenter": "TMTT",
        "workorder": "GA26043097"
      },
      {
        "age": 23.0,
        "dept": null,
        "futureHoldComment": null,
        "holdBy": "Camstar Administrator",
        "holdComment": "Low Yield '92.7591%' Hold by PAC",
        "holdReason": "YieldLimit",
        "lotId": "GA26043097-A00-003-01C",
        "package": "SOT-23 CU",
        "product": "PJA3413-AU_R1_007A3",
        "qty": 46899,
        "spec": "鈦昇",
        "workcenter": "TMTT",
        "workorder": "GA26043097"
      },
      {
        "age": 22.9,
        "dept": null,
        "futureHoldComment": null,
        "holdBy": "Camstar Administrator",
        "holdComment": "Low Yield '93.04545%' Hold by PAC",
        "holdReason": "YieldLimit",
        "lotId": "GA26043097-A00-003-02C",
        "package": "SOT-23 CU",
        "product": "PJA3413-AU_R1_007A3",
        "qty": 39000,
        "spec": "鈦昇",
        "workcenter": "TMTT",
        "workorder": "GA26043097"
      },
      {
        "age": 22.9,
        "dept": null,
        "futureHoldComment": null,
        "holdBy": "Camstar Administrator",
        "holdComment": "Low Yield '92.47218%' Hold by PAC",
        "holdReason": "YieldLimit",
        "lotId": "GA26043097-A00-003-03C",
        "package": "SOT-23 CU",
        "product": "PJA3413-AU_R1_007A3",
        "qty": 9557,
        "spec": "鈦昇",
        "workcenter": "TMTT",
        "workorder": "GA26043097"
      },
      {
        "age": 22.8,
        "dept": null,
        "futureHoldComment": null,
        "holdBy": "Camstar Administrator",
        "holdComment": "SBL超出規格Lot Hold:SBL項目:233_IGSS 報廢數:1378 不良率:1.35164 管制良率:.5",
        "holdReason": "SBL Limit(PE)",
        "lotId": "GA26043097-A00-006",
        "package": "SOT-23 CU",
        "product": "PJA3413-AU_R1_007A3",
        "qty": 98966,
        "spec": "鈦昇",
        "workcenter": "TMTT",
        "workorder": "GA26043097"
      },
      {
        "age": 21.7,
        "dept": null,
        "futureHoldComment": null,
        "holdBy": "Camstar Administrator",
        "holdComment": "Low Yield '93.48059%' Hold by PAC",
        "holdReason": "YieldLimit",
        "lotId": "GA26043097-A00-005-01C",
        "package": "SOT-23 CU",
        "product": "PJA3413-AU_R1_007A3",
        "qty": 27000,
        "spec": "鈦昇",
        "workcenter": "TMTT",
        "workorder": "GA26043097"
      },
      {
        "age": 21.7,
        "dept": null,
        "futureHoldComment": null,
        "holdBy": "Camstar Administrator",
        "holdComment": "SBL超出規格Lot Hold:SBL項目:233_IGSS 報廢數:638 不良率:2.77935 管制良率:.5",
        "holdReason": "SBL Limit(PE)",
        "lotId": "GA26043097-A00-005-02C",
        "package": "SOT-23 CU",
        "product": "PJA3413-AU_R1_007A3",
        "qty": 22152,
        "spec": "鈦昇",
        "workcenter": "TMTT",
        "workorder": "GA26043097"
      },
      {
        "age": 19.9,
        "dept": "移印(D)",
        "futureHoldComment": ";RD料號工程驗證",
        "holdBy": "潘瑞",
        "holdComment": null,
        "holdReason": "工程驗證(RD)",
        "lotId": "GA26050563-A00-001",
        "package": "SOT-363 CU",
        "product": "RD-PJT7413_S1_00001",
        "qty": 22044,
        "spec": "PRE TMTT",
        "workcenter": "TMTT",
        "workorder": "GA26050563"
      },
      {
        "age": 19.5,
        "dept": "彎腳(N)",
        "futureHoldComment": ";RD料號工程驗證",
        "holdBy": "黃偉萍",
        "holdComment": null,
        "holdReason": "工程驗證(RD)",
        "lotId": "GA26050564-A00-001",
        "package": "SOT-363 CU",
        "product": "RD-PJT7413_S1_00001",
        "qty": 21724,
        "spec": "PRE TMTT",
        "workcenter": "TMTT",
        "workorder": "GA26050564"
      },
      {
        "age": 16.8,
        "dept": null,
        "futureHoldComment": null,
        "holdBy": "Camstar Administrator",
        "holdComment": "SBL超出規格Lot Hold:SBL項目:245_IR 報廢數:483 不良率:.57441 管制良率:.5",
        "holdReason": "SBL Limit(PE)",
        "lotId": "GA26051581-A00-002",
        "package": "SOD-523",
        "product": "PJSD08TS-AU_R1_007A1",
        "qty": 82900,
        "spec": "LT",
        "workcenter": "TMTT",
        "workorder": "GA26051581"
      },
      {
        "age": 16.6,
        "dept": null,
        "futureHoldComment": null,
        "holdBy": "Camstar Administrator",
        "holdComment": "NCR26060001:FT02_車用產品SBL超規",
        "holdReason": "BPM Hold",
        "lotId": "GA26051581-A00-002-01C",
        "package": "SOD-523",
        "product": "PJSD08TS-AU_R1_007A1",
        "qty": 15000,
        "spec": "LT",
        "workcenter": "TMTT",
        "workorder": "GA26051581"
      },
      {
        "age": 16.4,
        "dept": null,
        "futureHoldComment": null,
        "holdBy": "Camstar Administrator",
        "holdComment": "SBL超出規格Lot Hold:SBL項目:245_IR 報廢數:3373 不良率:2.22567 管制良率:.5",
        "holdReason": "SBL Limit(PE)",
        "lotId": "GA26051581-A00-001",
        "package": "SOD-523",
        "product": "PJSD08TS-AU_R1_007A1",
        "qty": 147100,
        "spec": "LT",
        "workcenter": "TMTT",
        "workorder": "GA26051581"
      },
      {
        "age": 12.2,
        "dept": null,
        "futureHoldComment": null,
        "holdBy": "Camstar Administrator",
        "holdComment": "Low Yield '94.60996%' Hold by PAC",
        "holdReason": "YieldLimit",
        "lotId": "GA26051178-A00-005",
        "package": "TO-277",
        "product": "LSV5100-AU_R2_000A1",
        "qty": 33280,
        "spec": "3M",
        "workcenter": "TMTT",
        "workorder": "GA26051178"
      },
      {
        "age": 12.0,
        "dept": null,
        "futureHoldComment": null,
        "holdBy": "Camstar Administrator",
        "holdComment": "SBL超出規格Lot Hold:SBL項目:252_VZ 報廢數:422 不良率:1.82668 管制良率:1.02</br>",
        "holdReason": "SBL Limit(PE)",
        "lotId": "GA26051178-A00-004",
        "package": "TO-277",
        "product": "LSV5100-AU_R2_000A1",
        "qty": 22680,
        "spec": "3M",
        "workcenter": "TMTT",
        "workorder": "GA26051178"
      },
      {
        "age": 11.8,
        "dept": "TMTT(D)",
        "futureHoldComment": null,
        "holdBy": "陳美妤",
        "holdComment": "[失效模式]：[??]，[不良率]：[??]，[發現時機]：[??]，[現況確認]：[??]",
        "holdReason": "SBL Limit(PE)",
        "lotId": "GA26051172-A00-005-01C",
        "package": "TO-277",
        "product": "LSV5100-AU_R2_000A1",
        "qty": 24040,
        "spec": "3M",
        "workcenter": "TMTT",
        "workorder": "GA26051172"
      }
    ],
    "pagination": {
      "page": 1,
      "perPage": 50,
      "total": 124,
      "totalPages": 3
    }
  },
  "meta": {
    "app_version": "unknown",
    "timestamp": "2026-06-16T14:40:32.444833"
  },
  "success": true
}